…
``` r
result_df =
  homicide_clean %>% 
  nest(data = uid:result) %>% 
  mutate(
    test_result = purrr::map(data, prop_test),
    tidy_result = purrr::map(test_result, broom::tidy)
  ) %>% 
  select(city_state, tidy_result) %>% 
  unnest(tidy_result) %>% 
  select(city_state, estimate, conf.low, conf.high)
show(result_df)
```

    ## # A tibble: 50 × 4
    ##    city_state     estimate conf.low conf.high
    ##    <chr>             <dbl>    <dbl>     <dbl>
    ##  1 Albuquerque,NM    0.646    0.628     0.663
    ##  2 Atlanta,GA        0.646    0.628     0.663
    ##  3 Baltimore,MD      0.646    0.628     0.663
    ##  4 Baton Rouge,LA    0.646    0.628     0.663
    ##  5 Birmingham,AL     0.646    0.628     0.663
    ##  6 Boston,MA         0.646    0.628     0.663
    ##  7 Buffalo,NY        0.646    0.628     0.663
    ##  8 Charlotte,NC      0.646    0.628     0.663
    ##  9 Chicago,IL        0.646    0.628     0.663
    ## 10 Cincinnati,OH     0.646    0.628     0.663
    ## # … with 40 more rows
…
  select(-city, -state) %>% 
  group_by(city_state) %>% 
  summarize(unsolved = sum(result == "unsolved"),
            n = n()) %>% 
  mutate(
    test_result = purrr::map2(unsolved, n, prop.test),
    tidy_result = purrr::map(test_result, broom::tidy)
  ) %>% 
  select(city_state, tidy_result) %>% 
  unnest(tidy_result) %>% 
  select(city_state, estimate, conf.low, conf.high)
show(result_df2)
```

    ## # A tibble: 50 × 4
    ##    city_state     estimate conf.low conf.high
    ##    <chr>             <dbl>    <dbl>     <dbl>
    ##  1 Albuquerque,NM    0.386    0.337     0.438
    ##  2 Atlanta,GA        0.383    0.353     0.415
    ##  3 Baltimore,MD      0.646    0.628     0.663
    ##  4 Baton Rouge,LA    0.462    0.414     0.511
    ##  5 Birmingham,AL     0.434    0.399     0.469
    ##  6 Boston,MA         0.505    0.465     0.545
    ##  7 Buffalo,NY        0.612    0.569     0.654
    ##  8 Charlotte,NC      0.300    0.266     0.336
    ##  9 Chicago,IL        0.736    0.724     0.747
    ## 10 Cincinnati,OH     0.445    0.408     0.483
    ## # … with 40 more rows
…
